<?xml version="1.0" encoding="utf-8"?>
<!-- Generator: Adobe Illustrator 21.1.0, SVG Export Plug-In . SVG Version: 6.00 Build 0)  -->
<svg version="1.1" id="Layer_1" xmlns="http://www.w3.org/2000/svg" xmlns:xlink="http://www.w3.org/1999/xlink" x="0px" y="0px"
	 viewBox="0 0 964 56" style="enable-background:new 0 0 964 56;" xml:space="preserve">
<style type="text/css">
	.st0{fill:#808080;}
	.st1{fill:none;stroke:#808080;stroke-width:0.9742;stroke-miterlimit:10;}
	.st2{fill:#5BCCEA;}
	.st3{fill:#FFFFFF;}
</style>
<g>
	<path class="st0" d="M23.8,31.3h-1.1l-3.6-8.7h0v8.7H18v-9.5h1.9l3.4,8.1l3.4-8.1h1.9v9.5h-1.1v-8.7h0L23.8,31.3z"/>
	<path class="st0" d="M34.4,31.3v-0.7l0,0c-0.4,0.8-1.4,0.8-2.2,0.8c-1.5,0-2.5-0.3-2.5-2c0-1.8,0.9-2.1,2.6-2.1
		c0.7,0,2,0.1,2.1,0.7h0.1v-1.2c0-1.2-0.6-1.3-1.8-1.3c-0.8,0-1.7,0-1.7,0.9v0.2h-1v-0.1c0-1.7,1.2-1.8,2.7-1.8
		c1.7,0,2.9,0.2,2.9,2.2v4.5H34.4z M34.4,29.4c0-1.3-0.7-1.2-2-1.2c-1.2,0-1.7,0.1-1.7,1.2c0,1.3,0.5,1.3,1.7,1.3
		C33.4,30.6,34.4,30.6,34.4,29.4z M33.8,22.6l-2,1.3l-0.3-0.5l1.9-1.4L33.8,22.6z"/>
	<path class="st0" d="M42.5,34.2h-1v-3.6h0c-0.3,0.8-1.3,0.8-2,0.8c-2,0-2.8-0.5-2.8-3.4c0-2.2,0.3-3.4,2.8-3.4c0.8,0,1.6,0.2,2,0.9
		l0,0v-0.8h1V34.2z M41.5,28c0-1.9-0.1-2.6-2-2.6c-1.3,0-1.7,0.3-1.7,2.6c0,1.9,0,2.6,1.9,2.6C41.4,30.6,41.5,29.8,41.5,28z"/>
	<path class="st0" d="M48.5,30.5L48.5,30.5c-0.4,0.8-1.2,1-2.1,1c-1.8,0-2.4-0.7-2.4-2.5v-4.3h1V29c0,1.1,0.1,1.6,1.4,1.6
		c1.4,0,2.1-0.2,2.1-1.8v-4.1h1v6.6h-1V30.5z"/>
	<path class="st0" d="M52.1,23h-1v-1.1h1V23z M52.1,31.3h-1v-6.6h1V31.3z"/>
	<path class="st0" d="M54.6,25.5L54.6,25.5c0.3-0.8,1.3-0.9,2.1-0.9c1.7,0,2.5,0.5,2.5,2.3v4.4h-1v-4.5c0-1.2-0.5-1.4-1.6-1.4
		c-1.6,0-2,0.5-2,2v3.9h-1v-6.6h1V25.5z"/>
	<path class="st0" d="M65.2,31.3v-0.7l0,0c-0.4,0.8-1.4,0.8-2.2,0.8c-1.5,0-2.5-0.3-2.5-2c0-1.8,0.9-2.1,2.6-2.1
		c0.7,0,2,0.1,2.1,0.7h0.1v-1.2c0-1.2-0.6-1.3-1.8-1.3c-0.8,0-1.7,0-1.7,0.9v0.2h-1v-0.1c0-1.7,1.2-1.8,2.7-1.8
		c1.7,0,2.9,0.2,2.9,2.2v4.5H65.2z M65.2,29.4c0-1.3-0.7-1.2-2-1.2c-1.2,0-1.7,0.1-1.7,1.2c0,1.3,0.5,1.3,1.7,1.3
		C64.2,30.6,65.2,30.6,65.2,29.4z"/>
	<path class="st0" d="M77.7,29.3v0.2c0,1.8-1.4,1.8-2.8,1.8c-2.6,0-3-0.9-3-3.4c0-2.8,0.6-3.4,3-3.4c2.2,0,2.8,0.5,2.8,3v0.7h-4.8
		c0,2.1,0.2,2.4,2,2.4c1.4,0,1.8-0.1,1.8-1v-0.3H77.7z M76.6,27.4c-0.1-1.9-0.3-2-1.8-2c-1.8,0-1.9,0.5-2,2H76.6z"/>
	<path class="st0" d="M80,25.5L80,25.5c0.3-0.8,1.3-0.9,2.1-0.9c1.7,0,2.5,0.5,2.5,2.3v4.4h-1v-4.5c0-1.2-0.5-1.4-1.6-1.4
		c-1.6,0-2,0.5-2,2v3.9h-1v-6.6h1V25.5z"/>
	<path class="st0" d="M95,31.3v-0.7l0,0c-0.4,0.8-1.4,0.8-2.2,0.8c-1.5,0-2.5-0.3-2.5-2c0-1.8,0.9-2.1,2.6-2.1c0.7,0,2,0.1,2.1,0.7
		H95v-1.2c0-1.2-0.6-1.3-1.8-1.3c-0.8,0-1.7,0-1.7,0.9v0.2h-1v-0.1c0-1.7,1.2-1.8,2.7-1.8c1.7,0,2.9,0.2,2.9,2.2v4.5H95z M95,29.4
		c0-1.3-0.7-1.2-2-1.2c-1.2,0-1.7,0.1-1.7,1.2c0,1.3,0.5,1.3,1.7,1.3C94,30.6,95,30.6,95,29.4z"/>
	<path class="st0" d="M98.4,24.7l-0.1,0.8l0,0c0.3-0.7,1.1-0.9,1.9-0.9c1.3,0,1.8,0.6,1.8,1.9V27h-0.9v-0.4c0-0.8-0.3-1.1-1.1-1.1
		c-1.2,0-1.6,0.6-1.6,1.8v4.1h-1v-6.6H98.4z"/>
	<path class="st0" d="M104.1,24.7l-0.1,0.8l0,0c0.3-0.7,1.1-0.9,1.9-0.9c1.3,0,1.8,0.6,1.8,1.9V27h-0.9v-0.4c0-0.8-0.3-1.1-1.1-1.1
		c-1.2,0-1.6,0.6-1.6,1.8v4.1h-1v-6.6H104.1z"/>
	<path class="st0" d="M109.9,23h-1v-1.1h1V23z M109.9,31.3h-1v-6.6h1V31.3z"/>
	<path class="st0" d="M117,29.3v0.2c0,1.8-1.4,1.8-2.8,1.8c-2.6,0-3-0.9-3-3.4c0-2.8,0.6-3.4,3-3.4c2.2,0,2.8,0.5,2.8,3v0.7h-4.8
		c0,2.1,0.2,2.4,2,2.4c1.4,0,1.8-0.1,1.8-1v-0.3H117z M116,27.4c-0.1-1.9-0.3-2-1.8-2c-1.8,0-1.9,0.5-2,2H116z"/>
	<path class="st0" d="M119.4,25.5L119.4,25.5c0.3-0.8,1.3-0.9,2.1-0.9c1.7,0,2.5,0.5,2.5,2.3v4.4h-1v-4.5c0-1.2-0.5-1.4-1.6-1.4
		c-1.6,0-2,0.5-2,2v3.9h-1v-6.6h1V25.5z"/>
	<path class="st0" d="M130.1,30.5L130.1,30.5c-0.4,0.8-1.3,0.9-2.2,0.9c-2.4,0-2.6-1.4-2.6-3.4c0-2,0.2-3.4,2.6-3.4
		c0.7,0,1.8,0.1,2.1,0.9h0v-3.7h1v9.5h-1V30.5z M130.1,28c0-1.8-0.2-2.6-1.8-2.6c-1.5,0-1.9,0.3-1.9,2.6c0,2.3,0.5,2.6,1.9,2.6
		C129.8,30.6,130.1,30.1,130.1,28z"/>
	<path class="st0" d="M135.4,24.6c2.5,0,3,0.6,3,3.4c0,2.8-0.5,3.4-3,3.4c-2.5,0-3-0.6-3-3.4C132.5,25.2,133,24.6,135.4,24.6z
		 M135.4,30.6c1.8,0,1.9-0.3,1.9-2.6c0-2.3-0.1-2.6-1.9-2.6c-1.8,0-1.9,0.3-1.9,2.6C133.5,30.3,133.7,30.6,135.4,30.6z"/>
</g>
<rect x="10.1" y="15.8" class="st1" width="231.9" height="21.4"/>
<g>
	<polygon class="st0" points="233.4,28.4 229.3,32.6 225.1,28.4 229.3,28.4 	"/>
	<polygon class="st0" points="225.1,25.5 229.3,21.4 233.4,25.5 229.3,25.5 	"/>
</g>
<g>
	<path class="st0" d="M275,21.8h4.8c1.8,0,2.3,1.2,2.3,2.9c0,0.8,0,2.9-2.3,2.9h-3.7v3.7H275V21.8z M276.1,22.8v3.9h2.8
		c1.4,0,2.2,0,2.2-1.8c0-1.8-0.3-2.1-1.7-2.1H276.1z"/>
	<path class="st0" d="M287.8,31.3v-0.7l0,0c-0.4,0.8-1.4,0.8-2.2,0.8c-1.5,0-2.5-0.3-2.5-2c0-1.8,0.9-2.1,2.6-2.1
		c0.7,0,2,0.1,2.1,0.7h0.1v-1.2c0-1.2-0.6-1.3-1.8-1.3c-0.8,0-1.7,0-1.7,0.9v0.2h-1v-0.1c0-1.7,1.2-1.8,2.7-1.8
		c1.7,0,2.9,0.2,2.9,2.2v4.5H287.8z M287.7,29.4c0-1.3-0.7-1.2-2-1.2c-1.2,0-1.7,0.1-1.7,1.2c0,1.3,0.5,1.3,1.7,1.3
		C286.7,30.6,287.7,30.6,287.7,29.4z"/>
	<path class="st0" d="M291.3,31.3h-1v-9.5h1V31.3z"/>
	<path class="st0" d="M297.3,31.3v-0.7l0,0c-0.4,0.8-1.4,0.8-2.2,0.8c-1.5,0-2.5-0.3-2.5-2c0-1.8,0.9-2.1,2.6-2.1
		c0.7,0,2,0.1,2.1,0.7h0.1v-1.2c0-1.2-0.6-1.3-1.8-1.3c-0.8,0-1.7,0-1.7,0.9v0.2h-1v-0.1c0-1.7,1.2-1.8,2.7-1.8
		c1.7,0,2.9,0.2,2.9,2.2v4.5H297.3z M297.3,29.4c0-1.3-0.7-1.2-2-1.2c-1.2,0-1.7,0.1-1.7,1.2c0,1.3,0.5,1.3,1.7,1.3
		C296.3,30.6,297.3,30.6,297.3,29.4z"/>
	<path class="st0" d="M299.8,21.8h1v3.7h0c0.3-0.8,1.4-0.9,2.1-0.9c2.3,0,2.6,1.3,2.6,3.4c0,2.2-0.3,3.4-2.6,3.4
		c-0.9,0-1.8-0.2-2.1-0.9l0,0v0.8h-1V21.8z M302.7,25.4c-1.7,0-1.9,0.7-1.9,2.6c0,2.2,0.4,2.6,1.9,2.6c1.8,0,1.8-0.8,1.8-2.6
		C304.6,25.9,304.3,25.4,302.7,25.4z"/>
	<path class="st0" d="M307.9,24.7l-0.1,0.8l0,0c0.3-0.7,1.1-0.9,1.9-0.9c1.3,0,1.8,0.6,1.8,1.9V27h-0.9v-0.4c0-0.8-0.3-1.1-1.1-1.1
		c-1.2,0-1.6,0.6-1.6,1.8v4.1h-1v-6.6H307.9z"/>
	<path class="st0" d="M317.2,31.3v-0.7l0,0c-0.4,0.8-1.4,0.8-2.2,0.8c-1.5,0-2.5-0.3-2.5-2c0-1.8,0.9-2.1,2.6-2.1
		c0.7,0,2,0.1,2.1,0.7h0.1v-1.2c0-1.2-0.6-1.3-1.8-1.3c-0.8,0-1.7,0-1.7,0.9v0.2h-1v-0.1c0-1.7,1.2-1.8,2.7-1.8
		c1.7,0,2.9,0.2,2.9,2.2v4.5H317.2z M317.1,29.4c0-1.3-0.7-1.2-2-1.2c-1.2,0-1.7,0.1-1.7,1.2c0,1.3,0.5,1.3,1.7,1.3
		C316.1,30.6,317.1,30.6,317.1,29.4z"/>
	<path class="st0" d="M325,26.4h-1v-0.3c0-0.7-0.5-0.7-1.6-0.7c-1.3,0-1.9,0-1.9,0.8c0,1.2,0.3,1.1,1.4,1.2c1.7,0.1,3.3-0.2,3.3,2
		c0,1.9-1.3,2-2.8,2c-1.4,0-3-0.1-3-1.6v-0.6h1v0.5c0,0.6,0.4,0.8,1.9,0.8c0.7,0,1.7,0.2,1.7-1c0-1.2-0.5-1-1.7-1.1
		c-1.4-0.1-2.9,0.1-2.9-1.8c0-1.9,1.1-2,2.9-2c1.2,0,2.6,0.1,2.6,1.6V26.4z"/>
	<path class="st0" d="M333.1,31.4c-1.7,0-2.8-1.1-2.8-3v-3.7c0-2.7,1.7-3,4-3h0.9c2,0,2.6,0.9,2.6,2.7v0.3h-1.1v-0.3
		c0-1.3-0.3-1.8-1.7-1.8h-0.6c-2.2,0-3,0.3-3,2v2.6c0,2.2,0.1,3.1,1.9,3.1h1.3c1.7,0,2.3-0.2,2.3-1.6v-0.8h1.1V29
		c0,2.2-1.4,2.4-3.3,2.4H333.1z"/>
	<path class="st0" d="M339.9,31.3h-1v-9.5h1V31.3z"/>
	<path class="st0" d="M346,31.3v-0.7l0,0c-0.4,0.8-1.4,0.8-2.2,0.8c-1.5,0-2.5-0.3-2.5-2c0-1.8,0.9-2.1,2.6-2.1c0.7,0,2,0.1,2.1,0.7
		h0.1v-1.2c0-1.2-0.6-1.3-1.8-1.3c-0.8,0-1.7,0-1.7,0.9v0.2h-1v-0.1c0-1.7,1.2-1.8,2.7-1.8c1.7,0,2.9,0.2,2.9,2.2v4.5H346z
		 M345.9,29.4c0-1.3-0.7-1.2-2-1.2c-1.2,0-1.7,0.1-1.7,1.2c0,1.3,0.5,1.3,1.7,1.3C344.9,30.6,345.9,30.6,345.9,29.4z"/>
	<path class="st0" d="M351.3,31.3h-1.4l-2.2-6.6h1l1.9,5.9h0l1.8-5.9h1.1L351.3,31.3z"/>
	<path class="st0" d="M359.9,29.3v0.2c0,1.8-1.4,1.8-2.8,1.8c-2.6,0-3-0.9-3-3.4c0-2.8,0.6-3.4,3-3.4c2.2,0,2.8,0.5,2.8,3v0.7h-4.8
		c0,2.1,0.2,2.4,2,2.4c1.4,0,1.8-0.1,1.8-1v-0.3H359.9z M358.9,27.4c-0.1-1.9-0.3-2-1.8-2c-1.8,0-1.9,0.5-2,2H358.9z"/>
	<path class="st0" d="M366.6,26.4h-1v-0.3c0-0.7-0.5-0.7-1.6-0.7c-1.3,0-1.9,0-1.9,0.8c0,1.2,0.3,1.1,1.4,1.2c1.7,0.1,3.3-0.2,3.3,2
		c0,1.9-1.3,2-2.8,2c-1.4,0-3-0.1-3-1.6v-0.6h1v0.5c0,0.6,0.4,0.8,1.9,0.8c0.7,0,1.7,0.2,1.7-1c0-1.2-0.5-1-1.7-1.1
		c-1.4-0.1-2.9,0.1-2.9-1.8c0-1.9,1.1-2,2.9-2c1.2,0,2.6,0.1,2.6,1.6V26.4z"/>
	<path class="st0" d="M369.5,28.6v-0.3c0-1.2,0.3-1.5,1.8-2c1-0.4,1.2-0.5,1.2-2c0-1.4-0.3-1.6-1.9-1.6c-1.6,0-2,0.1-2,1.6v0.5h-1
		v-0.5c0.1-2.3,1-2.5,3.1-2.5c2.1,0,2.9,0.5,2.9,2.5c0,1.5-0.1,2.3-1.7,2.8c-1.1,0.4-1.2,0.4-1.2,1.2v0.3H369.5z M370.6,31.3h-1.1
		v-1.3h1.1V31.3z"/>
	<path class="st0" d="M380.3,31.3h-1.1v-9.5h4.4c2.1,0,3,0.6,3,2.7c0,1.3-0.2,2.3-1.7,2.5v0c1.1,0.1,1.5,0.7,1.5,1.7v2.5h-1.1v-2
		c0-1.2-0.3-1.8-1.6-1.8h-3.5V31.3z M383.6,26.6c1.7-0.1,1.9-0.6,1.9-2.1c0-1.2-0.2-1.7-1.9-1.7h-3.3v3.8H383.6z"/>
	<path class="st0" d="M393.4,29.3v0.2c0,1.8-1.4,1.8-2.8,1.8c-2.6,0-3-0.9-3-3.4c0-2.8,0.6-3.4,3-3.4c2.2,0,2.8,0.5,2.8,3v0.7h-4.8
		c0,2.1,0.2,2.4,2,2.4c1.4,0,1.8-0.1,1.8-1v-0.3H393.4z M392.4,27.4c-0.1-1.9-0.3-2-1.8-2c-1.8,0-1.9,0.5-2,2H392.4z"/>
	<path class="st0" d="M398.6,25.5H396v4.2c0,0.7,0.2,0.9,0.9,0.9c0.9,0,0.9-0.5,0.9-1.1V29h0.9v0.5c0,1.3-0.5,1.9-1.9,1.9
		c-1.6,0-1.9-0.4-1.9-2v-3.9h-0.9v-0.8h0.9v-1.6h1v1.6h2.6V25.5z"/>
	<path class="st0" d="M400.7,24.7l-0.1,0.8l0,0c0.3-0.7,1.1-0.9,1.9-0.9c1.3,0,1.8,0.6,1.8,1.9V27h-0.9v-0.4c0-0.8-0.3-1.1-1.1-1.1
		c-1.2,0-1.6,0.6-1.6,1.8v4.1h-1v-6.6H400.7z"/>
	<path class="st0" d="M408.3,24.6c2.5,0,3,0.6,3,3.4c0,2.8-0.5,3.4-3,3.4c-2.5,0-3-0.6-3-3.4C405.3,25.2,405.8,24.6,408.3,24.6z
		 M408.3,30.6c1.8,0,1.9-0.3,1.9-2.6c0-2.3-0.1-2.6-1.9-2.6c-1.8,0-1.9,0.3-1.9,2.6C406.4,30.3,406.5,30.6,408.3,30.6z"/>
	<path class="st0" d="M418.3,29.3v0.2c0,1.8-1.4,1.8-2.8,1.8c-2.6,0-3-0.9-3-3.4c0-2.8,0.6-3.4,3-3.4c2.2,0,2.8,0.5,2.8,3v0.7h-4.8
		c0,2.1,0.2,2.4,2,2.4c1.4,0,1.8-0.1,1.8-1v-0.3H418.3z M417.2,27.4c-0.1-1.9-0.3-2-1.8-2c-1.8,0-1.9,0.5-2,2H417.2z"/>
	<path class="st0" d="M425,26.4h-1v-0.3c0-0.7-0.5-0.7-1.6-0.7c-1.3,0-1.9,0-1.9,0.8c0,1.2,0.3,1.1,1.4,1.2c1.7,0.1,3.3-0.2,3.3,2
		c0,1.9-1.3,2-2.8,2c-1.4,0-3-0.1-3-1.6v-0.6h1v0.5c0,0.6,0.4,0.8,1.9,0.8c0.7,0,1.7,0.2,1.7-1c0-1.2-0.5-1-1.7-1.1
		c-1.4-0.1-2.9,0.1-2.9-1.8c0-1.9,1.1-2,2.9-2c1.2,0,2.6,0.1,2.6,1.6V26.4z"/>
	<path class="st0" d="M432,28.9v0.4c0,1.9-1.2,2.1-2.8,2.1c-2.8,0-3-1.1-3-3.5c0-2.2,0.4-3.3,2.8-3.3c1.6,0,2.9,0.2,2.9,2.1v0.2h-1
		v-0.2c0-1.2-0.7-1.2-1.8-1.2c-1.8,0-1.8,0.6-1.8,2.7c0,1.9,0.1,2.4,2,2.4c1.3,0,1.7-0.1,1.7-1.3v-0.3H432z"/>
	<path class="st0" d="M437.8,31.3v-0.7l0,0c-0.4,0.8-1.4,0.8-2.2,0.8c-1.5,0-2.5-0.3-2.5-2c0-1.8,0.9-2.1,2.6-2.1
		c0.7,0,2,0.1,2.1,0.7h0.1v-1.2c0-1.2-0.6-1.3-1.8-1.3c-0.8,0-1.7,0-1.7,0.9v0.2h-1v-0.1c0-1.7,1.2-1.8,2.7-1.8
		c1.7,0,2.9,0.2,2.9,2.2v4.5H437.8z M437.8,29.4c0-1.3-0.7-1.2-2-1.2c-1.2,0-1.7,0.1-1.7,1.2c0,1.3,0.5,1.3,1.7,1.3
		C436.8,30.6,437.8,30.6,437.8,29.4z"/>
	<path class="st0" d="M443.2,31.3h-1.4l-2.2-6.6h1l1.9,5.9h0l1.8-5.9h1.1L443.2,31.3z"/>
	<path class="st0" d="M450.7,31.3v-0.7l0,0c-0.4,0.8-1.4,0.8-2.2,0.8c-1.5,0-2.5-0.3-2.5-2c0-1.8,0.9-2.1,2.6-2.1
		c0.7,0,2,0.1,2.1,0.7h0.1v-1.2c0-1.2-0.6-1.3-1.8-1.3c-0.8,0-1.7,0-1.7,0.9v0.2h-1v-0.1c0-1.7,1.2-1.8,2.7-1.8
		c1.7,0,2.9,0.2,2.9,2.2v4.5H450.7z M450.7,29.4c0-1.3-0.7-1.2-2-1.2c-1.2,0-1.7,0.1-1.7,1.2c0,1.3,0.5,1.3,1.7,1.3
		C449.7,30.6,450.7,30.6,450.7,29.4z"/>
	<path class="st0" d="M457.8,30.5L457.8,30.5c-0.4,0.8-1.3,0.9-2.2,0.9c-2.4,0-2.6-1.4-2.6-3.4c0-2,0.2-3.4,2.6-3.4
		c0.7,0,1.8,0.1,2.1,0.9h0v-3.7h1v9.5h-1V30.5z M457.8,28c0-1.8-0.2-2.6-1.8-2.6c-1.5,0-1.9,0.3-1.9,2.6c0,2.3,0.5,2.6,1.9,2.6
		C457.5,30.6,457.8,30.1,457.8,28z"/>
	<path class="st0" d="M463.1,24.6c2.5,0,3,0.6,3,3.4c0,2.8-0.5,3.4-3,3.4s-3-0.6-3-3.4C460.2,25.2,460.6,24.6,463.1,24.6z
		 M463.1,30.6c1.8,0,1.9-0.3,1.9-2.6c0-2.3-0.1-2.6-1.9-2.6c-1.8,0-1.9,0.3-1.9,2.6C461.2,30.3,461.3,30.6,463.1,30.6z"/>
	<path class="st0" d="M468.3,24.7l-0.1,0.8l0,0c0.3-0.7,1.1-0.9,1.9-0.9c1.3,0,1.8,0.6,1.8,1.9V27h-0.9v-0.4c0-0.8-0.3-1.1-1.1-1.1
		c-1.2,0-1.6,0.6-1.6,1.8v4.1h-1v-6.6H468.3z"/>
	<path class="st0" d="M477.6,31.3v-0.7l0,0c-0.4,0.8-1.4,0.8-2.2,0.8c-1.5,0-2.5-0.3-2.5-2c0-1.8,0.9-2.1,2.6-2.1
		c0.7,0,2,0.1,2.1,0.7h0.1v-1.2c0-1.2-0.6-1.3-1.8-1.3c-0.8,0-1.7,0-1.7,0.9v0.2h-1v-0.1c0-1.7,1.2-1.8,2.7-1.8
		c1.7,0,2.9,0.2,2.9,2.2v4.5H477.6z M477.6,29.4c0-1.3-0.7-1.2-2-1.2c-1.2,0-1.7,0.1-1.7,1.2c0,1.3,0.5,1.3,1.7,1.3
		C476.6,30.6,477.6,30.6,477.6,29.4z"/>
</g>
<rect x="267.3" y="15.8" class="st1" width="231.9" height="21.4"/>
<g>
	<polygon class="st0" points="490.6,28.4 486.5,32.6 482.3,28.4 486.5,28.4 	"/>
	<polygon class="st0" points="482.3,25.5 486.5,21.4 490.6,25.5 486.5,25.5 	"/>
</g>
<g>
	<path class="st0" d="M530.3,27.4v0.3c0,1.2-0.3,1.5-1.8,2c-1,0.4-1.2,0.5-1.2,2c0,1.4,0.3,1.6,1.9,1.6c1.6,0,2-0.1,2-1.6v-0.5h1
		v0.5c-0.1,2.3-1,2.5-3.1,2.5c-2.1,0-2.9-0.5-2.9-2.5c0-1.5,0.1-2.3,1.7-2.8c1.1-0.4,1.2-0.4,1.2-1.2v-0.3H530.3z M530.3,26h-1.1
		v-1.3h1.1V26z"/>
	<path class="st0" d="M534.4,26h4.8v0.9h-4.8v3.5h5v0.9h-6.1v-9.5h6.1v0.9h-5V26z"/>
	<path class="st0" d="M541.5,25.5L541.5,25.5c0.3-0.8,1.3-0.9,2.1-0.9c1.7,0,2.5,0.5,2.5,2.3v4.4h-1v-4.5c0-1.2-0.5-1.4-1.6-1.4
		c-1.6,0-2,0.5-2,2v3.9h-1v-6.6h1V25.5z"/>
	<path class="st0" d="M557.6,34.2h-1v-3.6h0c-0.3,0.8-1.3,0.8-2,0.8c-2,0-2.8-0.5-2.8-3.4c0-2.2,0.3-3.4,2.8-3.4
		c0.8,0,1.6,0.2,2,0.9l0,0v-0.8h1V34.2z M556.5,28c0-1.9-0.1-2.6-2-2.6c-1.3,0-1.7,0.3-1.7,2.6c0,1.9,0,2.6,1.9,2.6
		C556.4,30.6,556.5,29.8,556.5,28z"/>
	<path class="st0" d="M563.6,30.5L563.6,30.5c-0.4,0.8-1.2,1-2.1,1c-1.8,0-2.4-0.7-2.4-2.5v-4.3h1V29c0,1.1,0.1,1.6,1.4,1.6
		c1.4,0,2.1-0.2,2.1-1.8v-4.1h1v6.6h-1V30.5z"/>
	<path class="st0" d="M571.8,29.3v0.2c0,1.8-1.4,1.8-2.8,1.8c-2.6,0-3-0.9-3-3.4c0-2.8,0.6-3.4,3-3.4c2.2,0,2.8,0.5,2.8,3v0.7H567
		c0,2.1,0.2,2.4,2,2.4c1.4,0,1.8-0.1,1.8-1v-0.3H571.8z M570.7,27.4c-0.1-1.9-0.3-2-1.8-2c-1.8,0-1.9,0.5-2,2H570.7z"/>
	<path class="st0" d="M581.9,30.5L581.9,30.5c-0.4,0.8-1.2,1-2.1,1c-1.8,0-2.4-0.7-2.4-2.5v-4.3h1V29c0,1.1,0.1,1.6,1.4,1.6
		c1.4,0,2.1-0.2,2.1-1.8v-4.1h1v6.6h-1V30.5z"/>
	<path class="st0" d="M584.4,21.8h1v3.7h0c0.3-0.8,1.4-0.9,2.1-0.9c2.3,0,2.6,1.3,2.6,3.4c0,2.2-0.3,3.4-2.6,3.4
		c-0.9,0-1.8-0.2-2.1-0.9l0,0v0.8h-1V21.8z M587.3,25.4c-1.7,0-1.9,0.7-1.9,2.6c0,2.2,0.4,2.6,1.9,2.6c1.8,0,1.8-0.8,1.8-2.6
		C589.2,25.9,588.9,25.4,587.3,25.4z"/>
	<path class="st0" d="M592.5,23h-1v-1.1h1V23z M592.5,31.3h-1v-6.6h1V31.3z"/>
	<path class="st0" d="M599.7,28.9v0.4c0,1.9-1.2,2.1-2.8,2.1c-2.8,0-3-1.1-3-3.5c0-2.2,0.4-3.3,2.8-3.3c1.6,0,2.9,0.2,2.9,2.1v0.2
		h-1v-0.2c0-1.2-0.7-1.2-1.8-1.2c-1.8,0-1.8,0.6-1.8,2.7c0,1.9,0.1,2.4,2,2.4c1.3,0,1.7-0.1,1.7-1.3v-0.3H599.7z"/>
	<path class="st0" d="M605.5,31.3v-0.7l0,0c-0.4,0.8-1.4,0.8-2.2,0.8c-1.5,0-2.5-0.3-2.5-2c0-1.8,1-2.1,2.6-2.1c0.7,0,2,0.1,2.1,0.7
		h0.1v-1.2c0-1.2-0.6-1.3-1.8-1.3c-0.8,0-1.7,0-1.7,0.9v0.2h-1v-0.1c0-1.7,1.2-1.8,2.7-1.8c1.7,0,2.9,0.2,2.9,2.2v4.5H605.5z
		 M605.5,29.4c0-1.3-0.7-1.2-2-1.2c-1.2,0-1.7,0.1-1.7,1.2c0,1.3,0.5,1.3,1.7,1.3C604.5,30.6,605.5,30.6,605.5,29.4z"/>
	<path class="st0" d="M613.6,28.9v0.4c0,1.9-1.2,2.1-2.8,2.1c-2.8,0-3-1.1-3-3.5c0-2.2,0.4-3.3,2.8-3.3c1.6,0,2.9,0.2,2.9,2.1v0.2
		h-1v-0.2c0-1.2-0.7-1.2-1.8-1.2c-1.8,0-1.8,0.6-1.8,2.7c0,1.9,0.1,2.4,2,2.4c1.3,0,1.7-0.1,1.7-1.3v-0.3H613.6z"/>
	<path class="st0" d="M615.8,23h-1v-1.1h1V23z M615.8,31.3h-1v-6.6h1V31.3z"/>
	<path class="st0" d="M620.1,24.6c2.5,0,3,0.6,3,3.4c0,2.8-0.5,3.4-3,3.4s-3-0.6-3-3.4C617.2,25.2,617.7,24.6,620.1,24.6z
		 M620.1,30.6c1.8,0,1.9-0.3,1.9-2.6c0-2.3-0.1-2.6-1.9-2.6s-1.9,0.3-1.9,2.6C618.2,30.3,618.4,30.6,620.1,30.6z M621.3,22.6l-2,1.3
		l-0.3-0.5l1.9-1.4L621.3,22.6z"/>
	<path class="st0" d="M625.5,25.5L625.5,25.5c0.3-0.8,1.3-0.9,2.1-0.9c1.7,0,2.5,0.5,2.5,2.3v4.4h-1v-4.5c0-1.2-0.5-1.4-1.6-1.4
		c-1.6,0-2,0.5-2,2v3.9h-1v-6.6h1V25.5z"/>
	<path class="st0" d="M633,28.6v-0.3c0-1.2,0.3-1.5,1.8-2c1-0.4,1.2-0.5,1.2-2c0-1.4-0.3-1.6-1.9-1.6c-1.6,0-2,0.1-2,1.6v0.5h-1
		v-0.5c0.1-2.3,1-2.5,3.1-2.5c2.1,0,2.9,0.5,2.9,2.5c0,1.5-0.1,2.3-1.7,2.8c-1.1,0.4-1.2,0.4-1.2,1.2v0.3H633z M634.1,31.3H633v-1.3
		h1.1V31.3z"/>
</g>
<rect x="518.6" y="15.8" class="st1" width="231.9" height="21.4"/>
<rect x="771.4" y="16.2" class="st2" width="71.6" height="22.4"/>
<g>
	<polygon class="st0" points="741.9,28.4 737.8,32.6 733.7,28.4 737.8,28.4 	"/>
	<polygon class="st0" points="733.7,25.5 737.8,21.4 741.9,25.5 737.8,25.5 	"/>
</g>
<g id="_x33_Npkuo_6_">
	<g>
		<path class="st3" d="M785.8,31.1c-1.5,0.8-3.1,1-4.8,0.5c-2.5-0.8-4.3-3.3-4.2-5.9c0.1-2.7,2-5,4.6-5.6c3.5-0.8,6.9,1.5,7.3,5
			c0.1,1.2,0,2.3-0.6,3.4c-0.2,0.3-0.1,0.5,0.1,0.7c0.9,0.9,1.8,1.8,2.7,2.7c0.4,0.4,0.4,0.5,0,0.9c-0.4,0.4-0.9,0.9-1.3,1.3
			c-0.4,0.4-0.5,0.4-0.8,0C787.9,33.2,786.9,32.2,785.8,31.1z M786.5,25.9c0-2-1.6-3.7-3.7-3.7c-2,0-3.7,1.7-3.7,3.7
			c0,2,1.7,3.7,3.7,3.7C784.9,29.6,786.5,27.9,786.5,25.9z"/>
	</g>
</g>
<g>
	<path class="st3" d="M796.3,31.3v-9.5h4.8c1.8,0,2.2,0.8,2.2,2.5c0,1-0.2,1.7-1.2,2v0c1.3,0.2,1.5,1.1,1.5,2.3
		c0,1.7-0.6,2.6-2.2,2.6H796.3z M797.3,26h3.1c1.3,0,1.7-0.3,1.7-1.8c0-1.3-0.5-1.4-1.6-1.4h-3.2V26z M797.3,30.4h3.4
		c1.2,0,1.7-0.1,1.7-1.6c0-1.3-0.2-1.9-1.6-1.9h-3.5V30.4z"/>
	<path class="st3" d="M809.3,30.5L809.3,30.5c-0.4,0.8-1.2,1-2.1,1c-1.8,0-2.4-0.7-2.4-2.5v-4.3h1V29c0,1.1,0.1,1.6,1.4,1.6
		c1.4,0,2.1-0.2,2.1-1.8v-4.1h1v6.6h-1V30.5z"/>
	<path class="st3" d="M817.1,26.4h-1v-0.3c0-0.7-0.5-0.7-1.6-0.7c-1.3,0-1.9,0-1.9,0.8c0,1.2,0.3,1.1,1.4,1.2c1.7,0.1,3.3-0.2,3.3,2
		c0,1.9-1.3,2-2.8,2c-1.4,0-3-0.1-3-1.6v-0.6h1v0.5c0,0.6,0.4,0.8,1.9,0.8c0.7,0,1.7,0.2,1.7-1c0-1.2-0.5-1-1.7-1.1
		c-1.4-0.1-2.9,0.1-2.9-1.8c0-1.9,1.1-2,2.9-2c1.2,0,2.6,0.1,2.6,1.6V26.4z"/>
	<path class="st3" d="M824.2,28.9v0.4c0,1.9-1.2,2.1-2.8,2.1c-2.8,0-3-1.1-3-3.5c0-2.2,0.4-3.3,2.8-3.3c1.6,0,2.9,0.2,2.9,2.1v0.2
		h-1v-0.2c0-1.2-0.7-1.2-1.8-1.2c-1.8,0-1.8,0.6-1.8,2.7c0,1.9,0.1,2.4,2,2.4c1.3,0,1.7-0.1,1.7-1.3v-0.3H824.2z"/>
	<path class="st3" d="M830,31.3v-0.7l0,0c-0.4,0.8-1.4,0.8-2.2,0.8c-1.5,0-2.5-0.3-2.5-2c0-1.8,0.9-2.1,2.6-2.1c0.7,0,2,0.1,2.1,0.7
		h0.1v-1.2c0-1.2-0.6-1.3-1.8-1.3c-0.8,0-1.7,0-1.7,0.9v0.2h-1v-0.1c0-1.7,1.2-1.8,2.7-1.8c1.7,0,2.9,0.2,2.9,2.2v4.5H830z
		 M830,29.4c0-1.3-0.7-1.2-2-1.2c-1.2,0-1.7,0.1-1.7,1.2c0,1.3,0.5,1.3,1.7,1.3C829,30.6,830,30.6,830,29.4z"/>
	<path class="st3" d="M833.5,24.7l-0.1,0.8l0,0c0.3-0.7,1.1-0.9,1.9-0.9c1.3,0,1.8,0.6,1.8,1.9V27h-0.9v-0.4c0-0.8-0.3-1.1-1.1-1.1
		c-1.2,0-1.6,0.6-1.6,1.8v4.1h-1v-6.6H833.5z"/>
</g>
<g id="ipRYFO_6_">
	<g>
		<path class="st2" d="M883.9,32.1c-0.2,0.7-0.4,1.4-0.9,1.9c-1,1.1-2.8,1.5-4.5,0.5c-0.4,0.4-0.7,0.8-1.1,1.2
			c-0.4,0.4-0.7,0.8-1.1,1.2c-0.3-0.3-0.6-0.6-0.9-0.9c0.8-0.7,1.5-1.5,2.3-2.2c-0.6-0.9-0.8-1.8-0.5-2.8c0.4-1.6,1.8-2.7,3.4-2.6
			c1.6,0,3,1.1,3.3,2.7c0,0.1,0.1,0.2,0.1,0.2C883.9,31.6,883.9,31.9,883.9,32.1z M882.7,31.7c0-1.2-1-2.2-2.2-2.2
			c-1.2,0-2.2,1-2.2,2.2c0,1.2,1,2.2,2.2,2.2C881.7,33.9,882.7,32.9,882.7,31.7z"/>
		<path class="st2" d="M872.1,35.2c-0.1-0.6-0.3-1.3-0.4-1.9c0-0.3-0.1-0.4-0.4-0.5c-0.3-0.1-0.6-0.3-0.8-0.5
			c-0.4-0.4-0.8-0.4-1.3-0.1c-0.5,0.2-0.9,0.3-1.5,0.5c-0.6-1-1.2-2-1.8-3c0.5-0.5,1-0.9,1.5-1.3c0.1-0.1,0.2-0.3,0.2-0.5
			c0-0.3-0.1-0.7,0-1c0.1-0.5-0.1-0.8-0.5-1.1c-0.4-0.3-0.8-0.7-1.2-1.1c0.6-1,1.2-2,1.8-3c0.7,0.2,1.3,0.5,1.9,0.6
			c0.2,0,0.4,0,0.5-0.1c0.4-0.2,0.9-0.5,1.3-0.7c0.1-0.1,0.3-0.2,0.3-0.4c0.2-0.7,0.3-1.3,0.4-2c1.2,0,2.3,0,3.5,0
			c0.1,0.6,0.3,1.3,0.4,1.9c0,0.2,0.1,0.4,0.4,0.5c0.4,0.2,0.8,0.4,1.1,0.6c0.2,0.2,0.5,0.2,0.7,0.1c0.6-0.2,1.2-0.4,1.8-0.6
			c0.6,1,1.2,2,1.8,3c-0.4,0.4-0.8,0.8-1.3,1.1c-0.4,0.3-0.5,0.6-0.4,1c0,0.1,0,0.2,0,0.4c-0.4,0.1-0.8,0.2-1.2,0.2
			c-0.1-0.5-0.2-1-0.2-1.5c0-0.1,0.1-0.3,0.2-0.4c0.4-0.4,0.8-0.8,1.2-1.1c0-0.1,0-0.1,0-0.1c-0.6-1.3-0.6-1.3-2-0.8
			c-0.5,0.2-0.8,0.1-1.2-0.2c-0.5-0.4-1.2-0.6-1.7-1c-0.1-0.1-0.3-0.2-0.3-0.4c-0.1-0.6-0.2-1.1-0.4-1.7c-0.5,0-1,0-1.5,0
			c-0.1,0.6-0.2,1.1-0.4,1.7c0,0.1-0.2,0.3-0.3,0.4c-0.8,0.3-1.4,0.6-2,1.2c-0.1,0.1-0.3,0.1-0.5,0.1c-0.6-0.2-1.1-0.4-1.7-0.5
			c-0.3,0.4-0.5,0.8-0.7,1.3c0.4,0.4,0.9,0.8,1.3,1.2c0.1,0.1,0.2,0.3,0.2,0.5c-0.2,0.8-0.2,1.6,0,2.3c0,0.1-0.1,0.4-0.2,0.5
			c-0.4,0.4-0.8,0.8-1.3,1.1c0.2,0.4,0.4,0.7,0.6,1.1c0.1,0.1,0.3,0.1,0.4,0.1c0.5-0.1,0.9-0.3,1.3-0.4c0.2-0.1,0.4-0.1,0.6,0.1
			c0.6,0.6,1.3,0.9,2,1.2c0.1,0,0.3,0.2,0.3,0.3c0.1,0.6,0.2,1.1,0.4,1.7c0.5,0,1,0,1.5,0c0.1-0.4,0.2-0.9,0.3-1.3
			c0.1-0.5,0.2-0.9,0.8-0.8c0.1,0.5,0.2,1,0.3,1.5c0,0.1-0.1,0.3-0.1,0.4c0,0,0,0-0.1,0.1C874.3,35.3,874.3,35.3,872.1,35.2z"/>
		<path class="st2" d="M877,27.1c0,1.7-1.5,3.1-3.2,3.1c-1.7-0.1-3.1-1.5-3-3.2c0-1.7,1.5-3.1,3.2-3.1C875.7,24,877.1,25.4,877,27.1
			z M873.9,25.1c-1,0-1.9,0.9-1.9,1.9c0,1,0.9,1.9,1.9,1.9c1,0,1.9-0.9,1.9-1.9C875.8,26,874.9,25.1,873.9,25.1z"/>
	</g>
</g>
<g>
	<path class="st2" d="M885.9,26.5V17h4.8c1.8,0,2.2,0.8,2.2,2.5c0,1-0.2,1.7-1.2,2v0c1.3,0.2,1.5,1.1,1.5,2.3c0,1.7-0.6,2.6-2.2,2.6
		H885.9z M887,21.1h3.1c1.3,0,1.7-0.3,1.7-1.8c0-1.3-0.5-1.4-1.6-1.4H887V21.1z M887,25.5h3.4c1.2,0,1.7-0.1,1.7-1.6
		c0-1.3-0.2-1.9-1.6-1.9H887V25.5z"/>
	<path class="st2" d="M898.9,25.6L898.9,25.6c-0.4,0.8-1.2,1-2.1,1c-1.8,0-2.4-0.7-2.4-2.5v-4.3h1v4.3c0,1.1,0.1,1.6,1.4,1.6
		c1.4,0,2.1-0.2,2.1-1.8v-4.1h1v6.6h-1V25.6z"/>
	<path class="st2" d="M906.8,21.6h-1v-0.3c0-0.7-0.5-0.7-1.6-0.7c-1.3,0-1.9,0-1.9,0.8c0,1.2,0.3,1.1,1.4,1.2c1.7,0.1,3.3-0.2,3.3,2
		c0,1.9-1.3,1.9-2.8,1.9c-1.4,0-3-0.1-3-1.6v-0.6h1v0.5c0,0.6,0.4,0.8,1.9,0.8c0.7,0,1.7,0.2,1.7-1c0-1.2-0.5-1-1.7-1.1
		c-1.4-0.1-2.9,0.1-2.9-1.8c0-1.9,1.1-2,2.9-2c1.2,0,2.6,0.1,2.6,1.6V21.6z"/>
	<path class="st2" d="M913.8,29.4h-1v-3.6h0c-0.3,0.8-1.3,0.8-2,0.8c-2,0-2.8-0.5-2.8-3.4c0-2.2,0.3-3.4,2.8-3.4
		c0.8,0,1.6,0.2,2,0.9l0,0v-0.8h1V29.4z M912.8,23.2c0-1.9-0.1-2.6-2-2.6c-1.3,0-1.7,0.3-1.7,2.6c0,1.9,0,2.6,1.9,2.6
		C912.7,25.7,912.8,24.9,912.8,23.2z"/>
	<path class="st2" d="M919.8,25.6L919.8,25.6c-0.4,0.8-1.2,1-2.1,1c-1.8,0-2.4-0.7-2.4-2.5v-4.3h1v4.3c0,1.1,0.1,1.6,1.4,1.6
		c1.4,0,2.1-0.2,2.1-1.8v-4.1h1v6.6h-1V25.6z"/>
	<path class="st2" d="M928,24.5v0.2c0,1.8-1.4,1.8-2.8,1.8c-2.6,0-3-0.9-3-3.4c0-2.8,0.6-3.4,3-3.4c2.2,0,2.8,0.5,2.8,3v0.7h-4.8
		c0,2.1,0.2,2.4,2,2.4c1.4,0,1.8-0.1,1.8-1v-0.3H928z M927,22.6c-0.1-1.9-0.3-2-1.8-2c-1.8,0-1.9,0.5-2,2H927z"/>
	<path class="st2" d="M934,25.6L934,25.6c-0.4,0.8-1.3,0.9-2.2,0.9c-2.4,0-2.6-1.4-2.6-3.4c0-2,0.2-3.4,2.6-3.4
		c0.7,0,1.8,0.1,2.1,0.9h0V17h1v9.5h-1V25.6z M934,23.2c0-1.8-0.2-2.6-1.8-2.6c-1.5,0-1.9,0.3-1.9,2.6c0,2.3,0.5,2.6,1.9,2.6
		C933.7,25.7,934,25.2,934,23.2z"/>
	<path class="st2" d="M941,26.5v-0.7l0,0c-0.4,0.8-1.4,0.8-2.2,0.8c-1.5,0-2.5-0.3-2.5-2c0-1.8,1-2.1,2.6-2.1c0.7,0,2,0.1,2.1,0.7
		h0.1v-1.2c0-1.2-0.6-1.3-1.8-1.3c-0.8,0-1.7,0-1.7,0.9v0.2h-1v-0.1c0-1.7,1.2-1.8,2.7-1.8c1.7,0,2.9,0.2,2.9,2.2v4.5H941z
		 M941,24.5c0-1.3-0.7-1.2-2-1.2c-1.2,0-1.7,0.1-1.7,1.2c0,1.3,0.5,1.3,1.7,1.3C940,25.7,941,25.7,941,24.5z"/>
	<path class="st2" d="M887,35.2l-0.7,2h-1.1l3.5-9.5h1.5l3.5,9.5h-1.1l-0.7-2H887z M889.4,28.6l-2.1,5.7h4.2L889.4,28.6z"/>
	<path class="st2" d="M896.8,37.2h-1.4l-2.2-6.6h1l1.9,5.9h0l1.8-5.9h1.1L896.8,37.2z"/>
	<path class="st2" d="M904.3,37.2v-0.7l0,0c-0.4,0.8-1.4,0.8-2.2,0.8c-1.5,0-2.5-0.3-2.5-2c0-1.8,0.9-2.1,2.6-2.1
		c0.7,0,2,0.1,2.1,0.7h0.1v-1.2c0-1.2-0.6-1.3-1.8-1.3c-0.8,0-1.7,0-1.7,0.9v0.2h-1v-0.1c0-1.7,1.2-1.8,2.7-1.8
		c1.7,0,2.9,0.2,2.9,2.2v4.5H904.3z M904.3,35.2c0-1.3-0.7-1.2-2-1.2c-1.2,0-1.7,0.1-1.7,1.2c0,1.3,0.5,1.3,1.7,1.3
		C903.3,36.5,904.3,36.4,904.3,35.2z"/>
	<path class="st2" d="M907.8,31.4L907.8,31.4c0.3-0.8,1.3-0.9,2.1-0.9c1.7,0,2.5,0.5,2.5,2.3v4.4h-1v-4.5c0-1.2-0.5-1.4-1.6-1.4
		c-1.6,0-2,0.5-2,2v3.9h-1v-6.6h1V31.4z"/>
	<path class="st2" d="M918.7,31.5l-4,4.9h4v0.8h-5.1v-0.9l4-4.9h-3.6v-0.8h4.8V31.5z"/>
	<path class="st2" d="M924.3,37.2v-0.7l0,0c-0.4,0.8-1.4,0.8-2.2,0.8c-1.5,0-2.5-0.3-2.5-2c0-1.8,1-2.1,2.6-2.1c0.7,0,2,0.1,2.1,0.7
		h0.1v-1.2c0-1.2-0.6-1.3-1.8-1.3c-0.8,0-1.7,0-1.7,0.9v0.2h-1v-0.1c0-1.7,1.2-1.8,2.7-1.8c1.7,0,2.9,0.2,2.9,2.2v4.5H924.3z
		 M924.3,35.2c0-1.3-0.7-1.2-2-1.2c-1.2,0-1.7,0.1-1.7,1.2c0,1.3,0.5,1.3,1.7,1.3C923.3,36.5,924.3,36.4,924.3,35.2z"/>
	<path class="st2" d="M931.4,36.4L931.4,36.4c-0.4,0.8-1.3,0.9-2.2,0.9c-2.4,0-2.6-1.4-2.6-3.4c0-2,0.2-3.4,2.6-3.4
		c0.7,0,1.8,0.1,2.1,0.9h0v-3.7h1v9.5h-1V36.4z M931.4,33.9c0-1.8-0.2-2.6-1.8-2.6c-1.5,0-1.9,0.3-1.9,2.6c0,2.3,0.5,2.6,1.9,2.6
		C931.1,36.5,931.4,35.9,931.4,33.9z"/>
	<path class="st2" d="M938.5,37.2v-0.7l0,0c-0.4,0.8-1.4,0.8-2.2,0.8c-1.5,0-2.5-0.3-2.5-2c0-1.8,0.9-2.1,2.6-2.1
		c0.7,0,2,0.1,2.1,0.7h0.1v-1.2c0-1.2-0.6-1.3-1.8-1.3c-0.8,0-1.7,0-1.7,0.9v0.2h-1v-0.1c0-1.7,1.2-1.8,2.7-1.8
		c1.7,0,2.9,0.2,2.9,2.2v4.5H938.5z M938.4,35.2c0-1.3-0.7-1.2-2-1.2c-1.2,0-1.7,0.1-1.7,1.2c0,1.3,0.5,1.3,1.7,1.3
		C937.4,36.5,938.4,36.4,938.4,35.2z"/>
</g>
</svg>
